Donald Trump Twitter Analysis
…
      Data Science

  Home

  About Me

Donald Trump Twitter Analysis

This where we an intro would go. Texty Text Text

Section Title

TextTextTextTextTextTextTextText

## # A tibble: 177,497 × 2
##           bigram     n
##            <chr> <int>
## 1         of the  1424
## 2      thank you  1396
## 3        will be  1333
## 4         in the  1116
## 5           is a   947
## 6   donald trump   897
## 7        a great   839
## 8        for the   711
## 9          to be   702
## 10 for president   691
## # ... with 177,487 more rows
…
Section Title

texttexttexttexttexttexttext

## # A tibble: 6,699 × 3
##      item1     item2     n
##      <chr>     <chr> <dbl>
## 1  hillary     trump   239
## 2  hillary   clinton   184
## 3  hillary       amp   158
## 4  hillary   america   157
## 5  hillary    people   156
## 6  hillary president   120
## 7  hillary   crooked   114
## 8  hillary      time   102
## 9  hillary   country   101
## 10 hillary    donald    89
## # ... with 6,689 more rows

## # A tibble: 2,747,306 × 3
##          item1       item2 correlation
##          <chr>       <chr>       <dbl>
## 1      warming      global   0.9097812
## 2       global     warming   0.9097812
## 3       arabia       saudi   0.9039446
## 4        saudi      arabia   0.9039446
## 5  brotherhood      muslim   0.8733315
## 6       muslim brotherhood   0.8733315
## 7        lance   armstrong   0.7991911
## 8    armstrong       lance   0.7991911
## 9       rivers        joan   0.7839041
## 10        joan      rivers   0.7839041
## # ... with 2,747,296 more rows
…
Section Title

TextTextTextText

## # A tibble: 23,165 × 4
##           word sentiment lexicon score
##          <chr>     <chr>   <chr> <int>
## 1       abacus     trust     nrc    NA
## 2      abandon      fear     nrc    NA
## 3      abandon  negative     nrc    NA
## 4      abandon   sadness     nrc    NA
## 5    abandoned     anger     nrc    NA
## 6    abandoned      fear     nrc    NA
## 7    abandoned  negative     nrc    NA
## 8    abandoned   sadness     nrc    NA
## 9  abandonment     anger     nrc    NA
## 10 abandonment      fear     nrc    NA
## # ... with 23,155 more rows

## # A tibble: 13,901 × 2
##           word sentiment
##          <chr>     <chr>
## 1       abacus     trust
## 2      abandon      fear
## 3      abandon  negative
## 4      abandon   sadness
## 5    abandoned     anger
## 6    abandoned      fear
## 7    abandoned  negative
## 8    abandoned   sadness
## 9  abandonment     anger
## 10 abandonment      fear
## # ... with 13,891 more rows
…
## # A tibble: 96 × 2
##            word     n
##           <chr> <int>
## 1         white    15
## 2          good    14
## 3         happy    13
## 4  intelligence    13
## 5     wonderful    13
## 6          deal    12
## 7         enjoy    12
## 8         money    10
## 9          vote    10
## 10     optimism     8
## # ... with 86 more rows
…
Topic Modeling

## # A tibble: 123,992 × 3
##            document       word     n
##               <chr>      <chr> <int>
## 1           Trump_1      trump  4855
## 2  Anti-Immigrant_5 infowarsgt  2649
## 3           Trump_1  president  1664
## 4           Trump_1     donald  1504
## 5           Trump_1     people  1275
## 6           Trump_1      obama  1176
## 7           Trump_1    america  1123
## 8           Trump_1        run   983
## 9           Trump_1    country   967
## 10          Trump_1       time   950
## # ... with 123,982 more rows

## <<DocumentTermMatrix (documents: 71, terms: 55274)>>
## Non-/sparse entries: 123992/3800462
## Sparsity           : 97%
## Maximal term length: 241
## Weighting          : term frequency (tf)

## A LDA_VEM topic model with 11 topics.

## # A tibble: 608,014 × 3
##    topic  term        beta
##    <int> <chr>       <dbl>
## 1      1 trump 0.001370379
## 2      2 trump 0.014619746
## 3      3 trump 0.028054283
## 4      4 trump 0.003283248
## 5      5 trump 0.021138817
## 6      6 trump 0.011440835
## 7      7 trump 0.015145815
## 8      8 trump 0.010123408
## 9      9 trump 0.007468456
## 10    10 trump 0.007005081
## # ... with 608,004 more rows

## # A tibble: 55 × 3
##    topic         term        beta
##    <int>        <chr>       <dbl>
## 1      1         live 0.009985145
## 2      1      baldwin 0.008341641
## 3      1 wallbuilders 0.008053998
## 4      1        chuck 0.008012125
## 5      1         page 0.006309123
## 6      2  immigration 0.016387526
## 7      2        trump 0.014619746
## 8      2      illegal 0.013610987
## 9      2    sanctuary 0.012709502
## 10     2          nsm 0.012644923
## # ... with 45 more rows
…
Per Document Classification

## # A tibble: 71 × 4
##             group_id chapter topic     gamma
##                <chr>   <int> <int>     <dbl>
## 1    Anti-Government       3     1 0.9999510
## 2          Anti-LGBT       4     1 0.9683443
## 3          Anti-LGBT       9     1 0.4517697
## 4  White Nationalist       5     1 0.9998670
## 5          Anti-LGBT       3     1 0.5497992
## 6        Anti-Muslim       4     1 0.9492134
## 7           Neo-Nazi       7     2 0.9999491
## 8     Anti-Immigrant       2     2 0.9999645
## 9     Anti-Immigrant       6     2 0.9999646
## 10    Anti-Immigrant       1     2 0.6123448
## # ... with 61 more rows

## # A tibble: 88 × 5
##            group_id chapter topic     gamma       consensus
##               <chr>   <int> <int>     <dbl>           <chr>
## 1          Neo-Nazi       7     2 0.9999491  Anti-Immigrant
## 2          Neo-Nazi       7     2 0.9999491             KKK
## 3          Neo-Nazi       7     2 0.9999491 Neo-Confederate
## 4    Anti-Immigrant       2     2 0.9999645             KKK
## 5    Anti-Immigrant       2     2 0.9999645 Neo-Confederate
## 6    Anti-Immigrant       6     2 0.9999646             KKK
## 7    Anti-Immigrant       6     2 0.9999646 Neo-Confederate
## 8    Anti-Immigrant       1     2 0.6123448             KKK
## 9    Anti-Immigrant       1     2 0.6123448 Neo-Confederate
## 10 Black Separatist       3     2 0.4254101  Anti-Immigrant
## # ... with 78 more rows
…
## # A tibble: 111,411 × 4
##              title         consensus   term     n
##              <chr>             <chr>  <chr> <dbl>
## 1  Anti-Government         Anti-LGBT    gun   926
## 2  Anti-Government White Nationalist    gun   926
## 3      Anti-Muslim    Anti-Immigrant muslim   614
## 4      Anti-Muslim               KKK muslim   614
## 5      Anti-Muslim   Neo-Confederate muslim   614
## 6        Anti-LGBT White Nationalist    god   454
## 7      Anti-Muslim    Anti-Immigrant  trump   324
## 8      Anti-Muslim               KKK  trump   324
## 9      Anti-Muslim   Neo-Confederate  trump   324
## 10 Anti-Government    Anti-Immigrant  trump   319
## # ... with 111,401 more rows
